   ____                           _   __  __       _                 
  / ___| ___ _ __   ___ _ __ __ _| | |  \/  | ___ | |_ ___  _ __ ___ 
 | |  _ / _ \ '_ \ / _ \ '__/ _` | | | |\/| |/ _ \| __/ _ \| '__/ __|
 | |_| |  __/ | | |  __/ | | (_| | | | |  | | (_) | || (_) | |  \__ \
  \____|\___|_| |_|\___|_|  \__,_|_| |_|  |_|\___/ \__\___/|_|  |___/
  
:: General Motors :: Running Spring Boot ${spring-boot.version} :: \0/